{
  "main": {
    "new_game": "New Game",
    "continue_game": "Continue Game",
    "how_to_play": "How To Play"
  },
  "playerSelect": {
    "title": "How Many Players?",
    "one_player": "1 Player",
    "two_players": "2 Players",
    "three_players": "3 Players",
    "four_players": "4 Players"
  },
  "setupPlayer": {
    "title": "Setup Player",
    "enter_name": "Enter your name",
    "select_class": "Select your class",
    "health": "Health",
    "power": "Power",
    "magic": "Magic"
  },
  "confirmPlayers": {
    "title": "Ready To Play?"
  },
  "deckSetup": {
    "title": "Entering Floor",
    "floor": "Floor",
    "deck_setup": "Deck Setup",
    "tutorial_1": "1. Separate the cards into two face-down decks:",
    "room_cards": "9 Room Cards",
    "combat_cards": "8 Combat Cards",
    "tutorial_2": "2. Remove the Boss Room card from the Room Deck:",
    "boss_card": "Boss Room Card",
    "tutorial_3": "3. Shuffle the Room Deck and discard one card from it.\nThen place the Boss Room card at the bottom of the deck.",
    "tutorial_4": "4. Shuffle the Combat Deck."
  },
  "mapExploration": {
    "turn": "Turn",
    "instruction_first_turn": "Flip the top card from the Room Deck and place it\nanywhere on the table. Then tap the card below and choose\nthe room you drew. You must enter this room.",
    "instruction_other_turns": "Flip the top card from the Room Deck and place it\nadjacent to a completed room on the table. Then tap the\nsame spot below and choose the room you drew.",
    "instruction_second_turn_flip": "You can do one of the following:\n1. Enter this room or\n2. Skip your turn and postpone entering this room",
    "instruction_other_turns_flip": "1. Enter this room or\n2. Enter any room that has not yet been explored or\n3. Skip your turn",
    "instruction_one_player_flip": "You can do one of the following:\n1. Enter this room or\n2. Enter any room that has not yet been explored",
    "enter_room": "Enter\nRoom",
    "skip_turn": "Skip\nTurn",
    "green_room": "Green Encounter",
    "blue_room": "Blue Encounter",
    "boss_room": "Boss Room",
    "shop_room": "Shop",
    "treasure_room": "Treasure Room",
    "shrine_room": "Shrine",
    "remove": "Remove",
    "boss_key_required": "Boss Key Required!"
  },
  "battle": {
    "turn": "Combat  Turn",
    "stats": "Stats",
    "downed": "Is  Down!",
    "skills": "Skills",
    "defense": "Defense",
    "items": "Items",
    "defense_bonus": "Defense  Bonus",
    "attack_bonus": "Attack  Bonus",
    "weapon": "Weapon",
    "weapon_proficiency": "Weapon  Proficiency",
    "end_turn": "End Turn",
    "health": "Health",
    "magic": "Magic",
    "power": "Power",
    "experience": "Experience",
    "level": "Level",
    "speed": "Speed",
    "gold": "Gold",
    "status": "Status",
    "status_normal": "Normal",
    "status_stunned": "Stunned",
    "status_poisoned": "Poisoned",
    "status_bleeding": "Bleeding",
    "status_weakened": "Weakened",
    "status_slowed": "Slowed",
    "magic_cost": "Magic Cost",
    "cards_required": "To  activate,  discard  the  following  cards:",
    "discard_info": "Discard the cards you used to activate this action.\nFrom the Combat Deck, draw up to the same number of cards you discarded (if possible)",
    "choose_item_target": "Choose a target to use this item on:",
    "choose_skill_target": "Choose a target to use this skill on:",
    "encounter_complete": "Flip this Room Card over so that it is face-down.\n\nThis Encounter is now complete!",
    "activate": "Activate",
    "cancel": "Cancel",
    "close": "Close",
    "is_a_heart": "Heart!",
    "is_not_a_heart": "Not  A  Heart ...",
    "exit": "Exit Room",
    "defeated": "Defeated!",
    "not_enough_cards": "Not enough cards!",
    "not_enough_magic": "Not enough magic!",
    "reward_gold": "Reward: Bonus Gold!",
    "reward_exp": "Reward: Bonus Experience!",
    "reward_recovery": "Reward: Health & Magic Recovery!",
    "reward_item": "Reward: Item!",
    "instructions_start": "Shuffle the Combat Deck and draw 4 cards.\nUse these 4 cards to activate a Skill, Defense or Item below.\n\nThe enemy's potential actions are shown on the timeline above.",
    "instructions_combo": "Remember to discard the cards you used to activate the action and refill your hand back to 4 cards from the Combat Deck.\n\nYou can then continue activating actions if possible.",
    "instructions_reward": "Shuffle the 8 Combat Deck cards and allow each player to choose 1 card randomly from the deck. Tap the number on the card you drew below. For the wild card, choose any number."
  },
  "shop": {
    "gold": "Gold",
    "instructions": "Welcome Adventurer! Step right in and feast your eyes on\nthe best wares you will find in this accurst place...",
    "cancel": "Cancel"
  },
  "dropItemPanel": {
    "title": "Drop  An  Item",
    "instructions": "You can only carry 4 items at a time. Select an item to drop. It will be replaced by your new item."
  },
  "treasure": {
    "turn": "Turn",
    "instructions": "Shuffle the 8 Combat Deck cards and choose 1 card\nrandomly from the deck. Open the chest that matches your\ncard's colour. The wild card is any colour."
  },
  "swapWeaponPanel": {
    "title": "Weapon  Obtained!",
    "instructions": "Do you want to replace your existing weapon with this new one?",
    "existing": "Existing",
    "new": "New",
    "replace": "Replace",
    "cancel": "Exit"
  },
  "shrine": {
    "turn": "Turn",
    "instructions": "Shuffle the 8 Combat Deck cards and choose 1 card\nrandomly from the deck. Choose the symbol that matches\nyour card's symbol. The wild card is any symbol.",
    "title": "What  will  you  offer?"
  }
}
